ALX 030
BLR 030
BRD 030
BSN 030
CMN 004
CMY 030
CNL 030
DSM 030
FAN 030
GUL 030
IBK 030
JRI 030
KEN 030
KRN 030
LAR 030
NCL 030
NSH 030
RMK 030
RSD 030
RYU 030
URN 030
VEG 030
Z20 030
Z21 030
Z22 030
Z23 030
Z24 030
Z25 030
Z26 030
Z27 030
Z28 030
Z29 030
Z30 030
Z31 030
Z32 000
ZGF 030